<svg xmlns="http://www.w3.org/2000/svg" width="96" height="20">
  <linearGradient id="b" x2="0" y2="100%">
    <stop offset="0" stop-color="#bbb" stop-opacity=".1"/>
    <stop offset="1" stop-opacity=".1"/>
  </linearGradient>

  <mask id="a">
    <rect width="96" height="20" rx="3" fill="#fff"/>
  </mask>

  <g mask="url(#a)">
    <path fill="#555"
          d="M0 0 h42 v20 H0 z"/>
    <path fill="#3076af"
          d="M42 0 h54 v20 H42 z"/>
    <path fill="url(#b)"
          d="M0 0 h96 v20 H0 z"/>
  </g>

  <g fill="#fff" text-anchor="middle">
    <g font-family="DejaVu Sans,Verdana,Geneva,sans-serif" font-size="11">
      <text x="21" y="15" fill="#010101" fill-opacity=".3">
        docs
      </text>
      <text x="21" y="14">
        docs
      </text>
      <text x="69" y="15" fill="#010101" fill-opacity=".3">
        @pages
      </text>
      <text x="69" y="14">
        @pages
      </text>
    </g>
  </g>
</svg>

